ETC5512: Wild Caught Data
…
]
.item[

```
## # A tibble: 330 x 4
##      col   row  plot   gen
##    <int> <int> <int> <int>
##  1     1     1     1    79
##  2     1     2     2    29
##  3     1     3     3     8
##  4     1     4     4    72
##  5     1     5     5   106
##  6     1     6     6    91
##  7     1     7     7    55
##  8     1     8     8    57
##  9     1     9     9    66
## 10     1    10    10    37
## # … with 320 more rows
```
…
]
.item[

```
## # A tibble: 330 x 5
## # Groups:   rep [3]
##      col   row  plot rep      gen
##    <int> <int> <int> <chr>  <int>
##  1     1     1     1 block1    28
##  2     1     2     2 block1   106
##  3     1     3     3 block1    93
##  4     1     4     4 block1    41
##  5     1     5     5 block1    92
##  6     1     6     6 block1    71
##  7     1     7     7 block1    78
##  8     1     8     8 block1    38
##  9     1     9     9 block1    13
## 10     1    10    10 block1    89
## # … with 320 more rows
```
…
# Wheat Yield Trial: Analysis .circle-it[2B]

.grid[
.item[

```r
broom::tidy(fitb) %>% 
  select(term, estimate) %>% 
  filter(str_detect(term, "gen")) %>% 
  arrange(-estimate)
```

```
## # A tibble: 106 x 2
##    term            estimate
##    <chr>              <dbl>
##  1 genVG878           52.3 
##  2 genRAC811          42.3 
##  3 gen(WqKPWmH*3Ag    24.3 
##  4 genVF508           11.7 
##  5 genRAC772           5.00
##  6 genWI216            4.00
##  7 genRAC779           3.67
##  8 genRAC820          -1.  
##  9 genVF519           -1.  
## 10 genRAC798          -1.67
## # … with 96 more rows
```
…
