ETC5512: Wild Caught Data
…
# Interrogating the data

* So students who have `BOOKID` as Form 1-12 or 67-78 would have had mathematics component in their test.

.grid[.item[

```r
pisa2018 %>% 
  filter(BOOKID == "Form 13") %>% 
  select(CNT, ST004D01T, BOOKID, PV1MATH)
```

```
## # A tibble: 20,511 x 4
##    CNT     ST004D01T BOOKID  PV1MATH
##    <fct>   <fct>     <fct>     <dbl>
##  1 Albania Female    Form 13    417.
##  2 Albania Male      Form 13    585.
##  3 Albania Female    Form 13    354.
##  4 Albania Male      Form 13    424.
##  5 Albania Female    Form 13    451.
##  6 Albania Female    Form 13    351.
##  7 Albania Female    Form 13    257.
##  8 Albania Female    Form 13    407.
##  9 Albania Male      Form 13    495.
## 10 Albania Female    Form 13    512.
## # … with 20,501 more rows
```
…
```r
set.seed(2020) # for reproducibility
boot_sample1 <- pisa2018c %>% 
  group_by(country, sex) %>% 
  sample_n(size = n(), replace = TRUE)
```

We can then treat `boot_sample1` as we did before to obtain another set of estimates for the gender gap for mathematics score by country. 

<code class ='r hljs remark-code'><span style='background-color:#ffff7f'>boot_sample1</span> %>%<br>&nbsp;&nbsp;summarise(avg = weighted.mean(PV1MATH, SENWT)) %>% <br>&nbsp;&nbsp;ungroup() %>% <br>&nbsp;&nbsp;pivot_wider(country, names_from = sex, values_from = avg) %>% <br>&nbsp;&nbsp;mutate(diff = Female - Male, country = fct_reorder(country, diff))</code>

```

## # A tibble: 76 x 4
##    country                Female  Male   diff
##    <fct>                   <dbl> <dbl>  <dbl>
##  1 Albania                  438.  434.   3.74
##  2 Argentina                373.  389. -15.4 
##  3 Australia                490.  495.  -4.57
##  4 Austria                  497.  508. -11.1 
##  5 Baku                     415.  424.  -9.02
##  6 Belarus                  470.  472.  -1.83
##  7 Belgium                  502.  517. -14.9 
##  8 Bosnia and Herzegovina   402.  410.  -7.43
##  9 Brazil                   376.  391. -14.6 
## 10 Brunei                   435.  425.   9.41
## # … with 66 more rows
…
