ETC5512: Wild Caught Data
…
.wider[
<img src="images/tennis/wta_rankings.png" width="1050px">
]
--
`html` is text, verbose, but nicely organised by tags. Web scraping allows harvesting data provided in web pages, by extracting the data components of the text. 

---

.font_smaller2[

```
## # A tibble: 22 x 4
##    Player                                          Rank Matches  Aces
##    <chr>                                          <int>   <int> <int>
##  1 ASHLEIGH A. BARTY  ASHLEIGH BARTY    AUS           1      14    79
##  2 KAROLINA K. PLISKOVA  KAROLINA PLISKOVA    CZE     3      11    76
##  3 SOFIA S. KENIN  SOFIA KENIN    USA                 4      18    50
##  4 ELINA E. SVITOLINA  ELINA SVITOLINA    UKR         5      14    48
##  5 KIKI K. BERTENS  KIKI BERTENS    NED               7      13    67
##  6 BELINDA B. BENCIC  BELINDA BENCIC    SUI           8      13    46
##  7 SERENA S. WILLIAMS  SERENA WILLIAMS    USA         9       8    50
##  8 NAOMI N. OSAKA  NAOMI OSAKA    JPN                10       7    67
##  9 ARYNA A. SABALENKA  ARYNA SABALENKA    BLR        11      15    64
## 10 PETRA P. KVITOVA  PETRA KVITOVA    CZE            12      15    77
## 11 MADISON M. KEYS  MADISON KEYS    USA              13       8    46
## 12 GARBIÑE G. MUGURUZA  GARBIÑE MUGURUZA    ESP      16      20   122
## 13 ELENA E. RYBAKINA  ELENA RYBAKINA    KAZ          17      25   146
## 14 MARIA M. SAKKARI  MARIA SAKKARI    GRE            20      15    60
## 15 ELISE E. MERTENS  ELISE MERTENS    BEL            23      14    46
## # … with 7 more rows
```
…
```r
library(rvest)
library(tidyverse)
url_atp <- "https://www.atptour.com/en/rankings/singles"
atp_html <- read_html(url_atp)
atp_rankings <- html_node(atp_html, "table") %>% 
  html_table(fill=TRUE)
```

---

.font_smaller2[

```
## # A tibble: 100 x 6
##    Player               Age Points `Tourn Played` `Points Dropping` `Next Best`
##    <chr>              <int> <chr>           <int> <chr>                   <int>
##  1 Novak Djokovic        32 10,220             18 45                          0
##  2 Rafael Nadal          33 9,850              18 360                         0
##  3 Dominic Thiem         26 7,045              21 1,000                      90
##  4 Roger Federer         38 6,630              16 600                         0
##  5 Daniil Medvedev       24 5,890              23 45                         45
##  6 Stefanos Tsitsipas    21 4,745              26 10                         90
##  7 Alexander Zverev      22 3,630              25 45                         45
##  8 Matteo Berrettini     23 2,860              21 135                        10
##  9 Gael Monfils          33 2,860              22 180                         0
## 10 David Goffin          29 2,555              27 10                         45
## # … with 90 more rows
```
…
.font_smaller[

```r
wta_html <- read_html("wta_rankings2.htm")
wta_rankings <- html_node(wta_html, "table") %>% html_table(fill=TRUE) 
wta_rankings <- wta_rankings %>% 
  janitor::remove_empty() %>% 
  as_tibble()
wta_rankings
```

```
## # A tibble: 207 x 17
##      Pos Player  Rank Matches  Aces `DF  Double Fau… `1st Srv %`
##    <int> <chr>  <int>   <int> <int>            <int> <chr>      
##  1     1 ASHLE…     1      14    79               26 61 %       
##  2     2 SIMON…     2      12    29               21 68.8 %     
##  3     3 KAROL…     3      11    76               36 63.2 %     
##  4     4 SOFIA…     4      18    50               48 69.8 %     
##  5     5 ELINA…     5      14    48               32 62.1 %     
##  6     6 KIKI …     7      13    67               50 62.9 %     
##  7     7 BELIN…     8      13    46               69 61.8 %     
##  8     8 SEREN…     9       8    50               10 62.6 %     
##  9     9 NAOMI…    10       7    67               14 63.8 %     
## 10    10 ARYNA…    11      15    64               49 63.5 %     
## # … with 197 more rows, and 10 more variables: `1st Srv Pts % 1st Serve Points
## #   Won %` <chr>, `2nd Srv % 2nd Serve Points %` <chr>, `Srv Pts Won % Service
## #   Points Won %` <chr>, `BP SVD % Break Points Saved %` <chr>, `Srv Gm Won %
## #   Service Games Won %` <chr>, `1st Rtn Pts % 1st Return Points Won %` <chr>,
## #   `2nd Rtn Pts % 2nd Return Points Won %` <chr>, `Rtn Gm Won % Return Games
## #   Won %` <chr>, `BP CONV % Break Points Converted %` <chr>, `Rtn Pts Won %
## #   Return Points Won %` <chr>
```
…
---
# cricketdata

.font_smaller[https://stats.espncricinfo.com/ci/engine/stats/index.html?class=10;team=289;template=results;type=batting]

.font_smaller[

```r
auswt20 <- fetch_cricinfo("T20", "Women", country="Aust")
auswt20
```

```
## # A tibble: 53 x 17
##    Player Start   End Matches Innings NotOuts  Runs HighScore HighScoreNotOut
##    <chr>  <int> <int>   <int>   <int>   <int> <int>     <dbl> <lgl>          
##  1 MM La…  2010  2020     104      98      21  2788       133 TRUE           
##  2 AJ He…  2010  2020     112      97      16  2060       148 TRUE           
##  3 BL Mo…  2016  2020      52      49      11  1452       117 TRUE           
##  4 EJ Vi…  2009  2018      62      58      10  1369        90 TRUE           
##  5 AJ Bl…  2005  2017      95      81      19  1314        61 FALSE          
##  6 EA Pe…  2008  2020     120      72      29  1218        60 TRUE           
##  7 JE Du…  2009  2015      64      55      10   941        68 TRUE           
##  8 LJ Po…  2006  2012      40      40       2   784        61 FALSE          
##  9 S Nit…  2005  2011      36      35       2   776        56 FALSE          
## 10 LC St…  2005  2013      54      50      14   769        52 FALSE          
## # … with 43 more rows, and 8 more variables: Average <dbl>, BallsFaced <int>,
## #   StrikeRate <dbl>, Hundreds <int>, Fifties <int>, Ducks <int>, Fours <int>,
## #   Sixes <int>
```
…
