ETC5512: Wild Caught Data
…
---

# Mobility and cases

Let's join together our two datasets:

.f4[

```r
cases %>%
  left_join(mobility, by = join_by(diagnosis_date == date, lga_name == sub_region_1))
```

```
## # A tibble: 295,148 × 20
##    diagnosis_date postcode lga_name    lga_code RAT_case_count PCR_case_count Total_case_count country_region_code country_region sub_region_2 metro_area iso_3166_2_code census_fips_code place_id
##    <date>            <dbl> <chr>          <dbl>          <dbl>          <dbl>            <dbl> <chr>               <chr>          <chr>        <lgl>      <chr>           <lgl>            <chr>   
##  1 2020-01-25         3149 Monash (C)     24970              0              1                1 <NA>                <NA>           <NA>         NA         <NA>            NA               <NA>    
##  2 2020-01-28         3150 Monash (C)     24970              0              1                1 <NA>                <NA>           <NA>         NA         <NA>            NA               <NA>    
##  3 2020-01-30         3006 Melbourne …    24600              0              1                1 <NA>                <NA>           <NA>         NA         <NA>            NA               <NA>    
##  4 2020-01-31         3008 Melbourne …    24600              0              1                1 <NA>                <NA>           <NA>         NA         <NA>            NA               <NA>    
##  5 2020-02-22         3058 Merri-bek …    25250              0              1                1 <NA>                <NA>           <NA>         NA         <NA>            NA               <NA>    
##  6 2020-02-22         3931 Mornington…    25340              0              1                1 <NA>                <NA>           <NA>         NA         <NA>            NA               <NA>    
##  7 2020-02-25         3109 Manningham…    24210              0              1                1 <NA>                <NA>           <NA>         NA         <NA>            NA               <NA>    
##  8 2020-03-01         3104 Boroondara…    21110              0              1                1 <NA>                <NA>           <NA>         NA         <NA>            NA               <NA>    
##  9 2020-03-01         3802 Casey (C)      21610              0              1                1 <NA>                <NA>           <NA>         NA         <NA>            NA               <NA>    
## 10 2020-03-04         3006 Melbourne …    24600              0              1                1 <NA>                <NA>           <NA>         NA         <NA>            NA               <NA>    
## # ℹ 295,138 more rows
## # ℹ 6 more variables: retail_and_recreation_percent_change_from_baseline <dbl>, grocery_and_pharmacy_percent_change_from_baseline <dbl>, parks_percent_change_from_baseline <dbl>,
## #   transit_stations_percent_change_from_baseline <dbl>, workplaces_percent_change_from_baseline <dbl>, residential_percent_change_from_baseline <dbl>
```
…
---

# Challenge: Making the LGA names match

.f4[

```r
cases_vs_mobility
```

```
## # A tibble: 30 × 3
##    lga_name              n mean_mobility_change
##    <chr>             <dbl>                <dbl>
##  1 Banyule              90                -51.6
##  2 Bayside             160                -57.0
##  3 Boroondara           71                -59.5
##  4 Brimbank            761                -44.5
##  5 Cardinia            109                -37.7
##  6 Casey               470                -38.1
##  7 Darebin             335                -52.2
##  8 Frankston           131                -40.1
##  9 Glen Eira            81                -56.8
## 10 Greater Dandenong   242                -40.3
## # ℹ 20 more rows
```
…
