ETC5512: Wild Caught Data
…
#Next step: Tidying the Data
.f4[

```r
library(dplyr)
perf_selected <- perf_calc%>% select("Service_Date","Service_Year","Service_Month",
                                  "Mode","Reliability", "Punctuality") 

perf_selected
```

```
## # A tibble: 400 x 6
##    Service_Date        Service_Year Service_Month Mode  Reliability Punctuality
##    <dttm>                     <dbl>         <dbl> <chr>       <dbl>       <dbl>
##  1 2010-01-01 00:00:00         2010             1 Metro        98.3        86.9
##  2 2010-01-01 00:00:00         2010             1 VLine        98.4        83.1
##  3 2010-01-01 00:00:00         2010             1 Yarra        99.5        84.9
##  4 2010-02-01 00:00:00         2010             2 Metro        98.8        83.4
##  5 2010-02-01 00:00:00         2010             2 VLine        97.5        82.1
##  6 2010-02-01 00:00:00         2010             2 Yarra        99.0        80.8
##  7 2010-03-01 00:00:00         2010             3 Metro        98.6        80.5
##  8 2010-03-01 00:00:00         2010             3 VLine        98.1        79.5
##  9 2010-03-01 00:00:00         2010             3 Yarra        98.8        79.5
## 10 2010-04-01 00:00:00         2010             4 Metro        99.4        84.5
## # ... with 390 more rows
```
…
