ETC5512: Solution for Tutorial 5
…
head(perf_month)

4. ⌚ Average Punctuality - group_by() & summarise()

Question: Identify, using summary functions, which tram route performed the worst (in terms of punctuality) on average in 2020. Hint: the variable for tram punctuality is called pct_on_time_average Hint: use dplyr::filter(??==??, ??==??) to filter out the data you need, then use group_by( variable ) %>% summarise( monthly_average = mean( ?? )) %>% calc_measures() %>% arrange(monthly_average)

You could alternatively summarise the data for each Parent_Route by year instead of month, and then compare the values

Answer: Route 78

performance %>% dplyr::filter(Mode=="Yarra", Service_Year==2020) %>% 
  group_by(Parent_Route) %>% summarise(monthly_average_2020=mean(pct_on_time_avg)) %>% arrange(monthly_average_2020)

## # A tibble: 23 x 2
##    Parent_Route monthly_average_2020
##    <chr>                       <dbl>
##  1 78                           86.4
##  2 72                           88.0
##  3 16                           89.1
##  4 48                           89.8
##  5 109                          89.8
##  6 67                           90.0
##  7 6                            90.2
##  8 86                           90.6
##  9 11                           90.6
## 10 3                            90.9
## # ... with 13 more rows
…
